…
<img src="hw3_files/figure-gfm/unnamed-chunk-4-1.png" width="90%" />

The top 10 most frequently ordered products in the Instacart dataset are
bags of organic bananas, bananas, large lemons, limes, organic avocados,
organic baby spinach, organic Has avocados, organic raspberries, organic
strawberries, and strawberries.

``` r
n_distinct(pull(instacart, aisle_id))
## [1] 134
instacart %>% 
  count(aisle_id, aisle, sort = TRUE)
## # A tibble: 134 × 3
##    aisle_id aisle                              n
##       <int> <chr>                          <int>
##  1       83 fresh vegetables              150609
##  2       24 fresh fruits                  150473
##  3      123 packaged vegetables fruits     78493
##  4      120 yogurt                         55240
##  5       21 packaged cheese                41699
##  6      115 water seltzer sparkling water  36617
##  7       84 milk                           32644
##  8      107 chips pretzels                 31269
##  9       91 soy lactosefree                26240
## 10      112 bread                          23635
## # … with 124 more rows
```
…
